^C:\Users\AMCV\source\repos\19\19\19.vcxproj
C:\Users\AMCV\source\repos\19\Release\19.ipdb
C:\Users\AMCV\source\repos\19\Release\19.iobj
^C:\Users\AMCV\source\repos\19\19\19.vcxproj
C:\Users\AMCV\source\repos\19\Release\19.ipdb
C:\Users\AMCV\source\repos\19\Release\19.iobj
^C:\Users\AMCV\source\repos\19\19\19.vcxproj
C:\Users\AMCV\source\repos\19\Release\19.ipdb
C:\Users\AMCV\source\repos\19\Release\19.iobj
^C:\Users\AMCV\source\repos\19\19\19.vcxproj
C:\Users\AMCV\source\repos\19\Release\19.ipdb
C:\Users\AMCV\source\repos\19\Release\19.iobj
